v 0.923880 -0.500000 -0.382683
v 0.707107 -0.500000 -0.707106
v 0.382684 -0.500000 -0.923879
v 0.000001 -0.500000 -1.000000
v -0.382683 -0.500000 -0.923880
v -0.707106 -0.500000 -0.707107
v -0.923879 -0.500000 -0.382684
v -1.000000 -0.500000 -0.000000
v -0.923880 -0.500000 0.382683
v -0.707107 -0.500000 0.707107
v -0.382684 -0.500000 0.923879
v -0.000000 -0.500000 1.000000
v 0.382683 -0.500000 0.923880
v 0.707107 -0.500000 0.707107
v 0.923880 -0.500000 0.382683
v 1.000000 -0.500000 0.000000
v 0.000000 0.500000 0.000000
v 0.923880 -0.500000 -0.382683
v 0.707107 -0.500000 -0.707106
v 0.382684 -0.500000 -0.923879
v 0.000001 -0.500000 -1.000000
v -0.382683 -0.500000 -0.923880
v -0.707106 -0.500000 -0.707107
v -0.923879 -0.500000 -0.382684
v -1.000000 -0.500000 -0.000000
v -0.923880 -0.500000 0.382683
v -0.707107 -0.500000 0.707107
v -0.382684 -0.500000 0.923879
v -0.000000 -0.500000 1.000000
v 0.382683 -0.500000 0.923880
v 0.707107 -0.500000 0.707107
v 0.923880 -0.500000 0.382683
v 1.000000 -0.500000 0.000000
v 0.000000 0.500000 0.000000
vt 0.730970 0.154329
vt 0.676777 0.073223
vt 0.595671 0.019030
vt 0.500000 0.000000
vt 0.404329 0.019030
vt 0.323223 0.073223
vt 0.269030 0.154329
vt 0.250000 0.250000
vt 0.269030 0.345671
vt 0.323223 0.426777
vt 0.404329 0.480970
vt 0.500000 0.500000
vt 0.595671 0.480970
vt 0.676777 0.426777
vt 0.730970 0.345671
vt 0.750000 0.250000
vt 0.250000 0.500000
vt 0.281250 0.500000
vt 0.312500 0.500000
vt 0.343750 0.500000
vt 0.375000 0.500000
vt 0.406250 0.500000
vt 0.437500 0.500000
vt 0.468750 0.500000
vt 0.500000 0.500000
vt 0.531250 0.500000
vt 0.562500 0.500000
vt 0.593750 0.500000
vt 0.625000 0.500000
vt 0.656250 0.500000
vt 0.687500 0.500000
vt 0.718750 0.500000
vt 0.750000 0.500000
vt 0.500000 1.000000
vn 0.000000 -0.000000 0.000000
vn 0.000000 -0.000000 0.000000
vn 0.000000 -0.000000 0.000000
vn 0.000000 -0.000000 0.000000
vn 0.000000 -0.000000 0.000000
vn 0.000000 -0.000000 0.000000
vn 0.000000 -0.000000 0.000000
vn 0.000000 -0.000000 0.000000
vn 0.000000 -0.000000 0.000000
vn 0.000000 -0.000000 0.000000
vn 0.000000 -0.000000 0.000000
vn -1.000000 -0.000000 0.000000
vn 0.000000 -0.000000 0.000000
vn 0.000000 -0.000000 0.000000
vn 0.000000 -0.000000 0.000000
vn -0.000000 -0.000000 0.000000
vn -0.000000 -0.000000 0.000000
vn -0.000000 -0.000000 0.000000
vn 0.000000 0.000000 0.000000
vn -0.000000 0.000000 0.000000
vn 0.000000 0.000000 0.000000
vn 0.000000 0.000000 0.000000
vn 0.000000 0.000000 0.000000
vn -0.000000 0.000000 0.000000
vn -0.000000 0.000000 0.000000
vn -0.000000 0.000000 0.000000
vn 0.000000 -0.000000 0.000000
f 1/1/1 16/16/16 2/2/2
f 16/16/16 15/15/15 2/2/2
f 15/15/15 14/14/14 2/2/2
f 14/14/14 13/13/13 2/2/2
f 13/13/13 12/12/12 2/2/2
f 12/12/12 11/11/11 2/2/2
f 11/11/11 10/10/10 2/2/2
f 10/10/10 9/9/9 2/2/2
f 9/9/9 8/8/8 2/2/2
f 8/8/8 7/7/7 2/2/2
f 7/7/7 6/6/6 2/2/2
f 6/6/6 5/5/5 2/2/2
f 5/5/5 4/4/4 2/2/2
f 4/4/4 3/3/3 2/2/2
f 1/17/1 2/18/2 17/34/17
f 2/18/2 3/19/3 17/34/17
f 3/19/3 4/20/4 17/34/17
f 4/20/4 5/21/5 17/34/17
f 5/21/5 6/22/6 17/34/17
f 6/22/6 7/23/7 17/34/17
f 7/23/7 8/24/8 17/34/17
f 8/24/8 9/25/9 17/34/17
f 9/25/9 10/26/10 17/34/17
f 10/26/10 11/27/11 17/34/17
f 11/27/11 12/28/12 17/34/17
f 12/28/12 13/29/13 17/34/17
f 13/29/13 14/30/14 17/34/17
f 14/30/14 15/31/15 17/34/17
f 15/31/15 16/32/16 17/34/17
f 16/32/16 1/33/1 17/34/17